===============================================================================
 Language            Files        Lines         Code     Comments       Blanks
===============================================================================
 YAML                   11          566          494           11           61
 Shell                   3          298          157           94           47
 ReStructuredText        1           69           47            0           22
 Python                  1           44           33            1           10
 JSON                    1            1            1            0            0
 Plain Text             11         1741            0         1386          355
-------------------------------------------------------------------------------
 Markdown                8         1779            0         1346          433
 |- YAML                 1            5            5            0            0
 (Total)                           1784            5         1346          433
===============================================================================
 Total                  36         4498          732         2838          928
===============================================================================
