Info: === Grype Scan Results ===



Info: === Trivy Scan Results ===

Info: Updating Trivy database...
Info: === Grype Scan Results ===

NAME     INSTALLED  FIXED-IN  TYPE  VULNERABILITY        SEVERITY 
rexml    3.2.6      3.3.6     gem   GHSA-vmwr-mc7x-5vc3  Medium    
rexml    3.2.6      3.2.7     gem   GHSA-vg3r-rm7w-2xgh  Medium    
rexml    3.2.6      3.3.3     gem   GHSA-r55c-59qm-vjw6  Medium    
rexml    3.2.6      3.3.3     gem   GHSA-5866-49gr-22v4  Medium    
rexml    3.2.6      3.3.2     gem   GHSA-4xqq-m2hx-25v8  Medium    
rexml    3.2.6      3.3.9     gem   GHSA-2rxp-v6pw-ch6m  Medium    
sinatra  3.2.0                gem   GHSA-hxx2-7vcw-mqr3  Medium


Info: === Trivy Scan Results ===

Info: Updating Trivy database...
Info: Database updated successfully

devdocs/Gemfile.lock (bundler)
==============================
Total: 6 (UNKNOWN: 0, LOW: 0, MEDIUM: 5, HIGH: 1, CRITICAL: 0)

┌─────────┬────────────────┬──────────┬────────┬───────────────────┬───────────────┬───────────────────────────────────────────────────────────┐
│ Library │ Vulnerability  │ Severity │ Status │ Installed Version │ Fixed Version │                           Title                           │
├─────────┼────────────────┼──────────┼────────┼───────────────────┼───────────────┼───────────────────────────────────────────────────────────┤
│ rexml   │ CVE-2024-49761 │ HIGH     │ fixed  │ 3.2.6             │ >= 3.3.9      │ rexml: REXML ReDoS vulnerability                          │
│         │                │          │        │                   │               │ https://avd.aquasec.com/nvd/cve-2024-49761                │
│         ├────────────────┼──────────┤        │                   ├───────────────┼───────────────────────────────────────────────────────────┤
│         │ CVE-2024-35176 │ MEDIUM   │        │                   │ >= 3.2.7      │ REXML: DoS parsing an XML with many `<`s in an attribute  │
│         │                │          │        │                   │               │ value...                                                  │
│         │                │          │        │                   │               │ https://avd.aquasec.com/nvd/cve-2024-35176                │
│         ├────────────────┤          │        │                   ├───────────────┼───────────────────────────────────────────────────────────┤
│         │ CVE-2024-39908 │          │        │                   │ >= 3.3.2      │ rexml: DoS vulnerability in REXML                         │
│         │                │          │        │                   │               │ https://avd.aquasec.com/nvd/cve-2024-39908                │
│         ├────────────────┤          │        │                   ├───────────────┼───────────────────────────────────────────────────────────┤
│         │ CVE-2024-41123 │          │        │                   │ >= 3.3.3      │ rexml: rubygem-rexml: DoS when parsing an XML having many │
│         │                │          │        │                   │               │ specific characters such...                               │
│         │                │          │        │                   │               │ https://avd.aquasec.com/nvd/cve-2024-41123                │
│         ├────────────────┤          │        │                   │               ├───────────────────────────────────────────────────────────┤
│         │ CVE-2024-41946 │          │        │                   │               │ rexml: DoS vulnerability in REXML                         │
│         │                │          │        │                   │               │ https://avd.aquasec.com/nvd/cve-2024-41946                │
│         ├────────────────┤          │        │                   ├───────────────┼───────────────────────────────────────────────────────────┤
│         │ CVE-2024-43398 │          │        │                   │ >= 3.3.6      │ rexml: DoS vulnerability in REXML                         │
│         │                │          │        │                   │               │ https://avd.aquasec.com/nvd/cve-2024-43398                │
└─────────┴────────────────┴──────────┴────────┴───────────────────┴───────────────┴───────────────────────────────────────────────────────────┘

devdocs/Dockerfile (dockerfile)
===============================
Tests: 28 (SUCCESSES: 25, FAILURES: 3)
Failures: 3 (UNKNOWN: 0, LOW: 1, MEDIUM: 0, HIGH: 2, CRITICAL: 0)

AVD-DS-0002 (HIGH): Specify at least 1 USER command in Dockerfile with non-root user as argument
════════════════════════════════════════════════════════════════════════════════════════════════════════════════════════════════════════════════════════════════════════════════════════════════════════════════════════════════════════════
Running containers with 'root' user can lead to a container escape situation. It is a best practice to run containers as non-root users, which can be done by adding a 'USER' statement to the Dockerfile.

See https://avd.aquasec.com/misconfig/ds002
────────────────────────────────────────────────────────────────────────────────────────────────────────────────────────────────────────────────────────────────────────────────────────────────────────────────────────────────────────────


AVD-DS-0026 (LOW): Add HEALTHCHECK instruction in your Dockerfile
════════════════════════════════════════════════════════════════════════════════════════════════════════════════════════════════════════════════════════════════════════════════════════════════════════════════════════════════════════════
You should add HEALTHCHECK instruction in your docker container images to perform the health check on running containers.

See https://avd.aquasec.com/misconfig/ds026
────────────────────────────────────────────────────────────────────────────────────────────────────────────────────────────────────────────────────────────────────────────────────────────────────────────────────────────────────────────


AVD-DS-0029 (HIGH): '--no-install-recommends' flag is missed: 'apt-get update &&     apt-get -y install git nodejs libcurl4 &&     gem install bundler &&     rm -rf /var/lib/apt/lists/*'
════════════════════════════════════════════════════════════════════════════════════════════════════════════════════════════════════════════════════════════════════════════════════════════════════════════════════════════════════════════
'apt-get' install should use '--no-install-recommends' to minimize image size.

See https://avd.aquasec.com/misconfig/ds029
────────────────────────────────────────────────────────────────────────────────────────────────────────────────────────────────────────────────────────────────────────────────────────────────────────────────────────────────────────────
 devdocs/Dockerfile:7-10
────────────────────────────────────────────────────────────────────────────────────────────────────────────────────────────────────────────────────────────────────────────────────────────────────────────────────────────────────────────
   7 ┌ RUN apt-get update && \
   8 │     apt-get -y install git nodejs libcurl4 && \
   9 │     gem install bundler && \
  10 └     rm -rf /var/lib/apt/lists/*
────────────────────────────────────────────────────────────────────────────────────────────────────────────────────────────────────────────────────────────────────────────────────────────────────────────────────────────────────────────



GITHUB_TOKEN_FILE.txt (secrets)
===============================
Total: 1 (UNKNOWN: 0, LOW: 0, MEDIUM: 0, HIGH: 0, CRITICAL: 1)

CRITICAL: GitHub (github-pat)
════════════════════════════════════════════════════════════════════════════════════════════════════════════════════════════════════════════════════════════════════════════════════════════════════════════════════════════════════════════
GitHub Personal Access Token
────────────────────────────────────────────────────────────────────────────────────────────────────────────────────────────────────────────────────────────────────────────────────────────────────────────────────────────────────────────
 GITHUB_TOKEN_FILE.txt:1
────────────────────────────────────────────────────────────────────────────────────────────────────────────────────────────────────────────────────────────────────────────────────────────────────────────────────────────────────────────
   1 [ ****************************************
────────────────────────────────────────────────────────────────────────────────────────────────────────────────────────────────────────────────────────────────────────────────────────────────────────────────────────────────────────────



GITLAB_TOKEN_FILE.txt (secrets)
===============================
Total: 1 (UNKNOWN: 0, LOW: 0, MEDIUM: 0, HIGH: 0, CRITICAL: 1)

CRITICAL: GitLab (gitlab-pat)
════════════════════════════════════════════════════════════════════════════════════════════════════════════════════════════════════════════════════════════════════════════════════════════════════════════════════════════════════════════
GitLab Personal Access Token
────────────────────────────────────────────────────────────────────────────────────────────────────────────────────────────────────────────────────────────────────────────────────────────────────────────────────────────────────────────
 GITLAB_TOKEN_FILE.txt:1
────────────────────────────────────────────────────────────────────────────────────────────────────────────────────────────────────────────────────────────────────────────────────────────────────────────────────────────────────────────
   1 [ **************************
────────────────────────────────────────────────────────────────────────────────────────────────────────────────────────────────────────────────────────────────────────────────────────────────────────────────────────────────────────────



pat.txt (secrets)
=================
Total: 1 (UNKNOWN: 0, LOW: 0, MEDIUM: 0, HIGH: 0, CRITICAL: 1)

CRITICAL: GitLab (gitlab-pat)
════════════════════════════════════════════════════════════════════════════════════════════════════════════════════════════════════════════════════════════════════════════════════════════════════════════════════════════════════════════
GitLab Personal Access Token
────────────────────────────────────────────────────────────────────────────────────────────────────────────────────────────────────────────────────────────────────────────────────────────────────────────────────────────────────────────
 pat.txt:1
────────────────────────────────────────────────────────────────────────────────────────────────────────────────────────────────────────────────────────────────────────────────────────────────────────────────────────────────────────────
   1 [ **************************
   2   
────────────────────────────────────────────────────────────────────────────────────────────────────────────────────────────────────────────────────────────────────────────────────────────────────────────────────────────────────────────




Info: === Grype Scan Results ===

NAME     INSTALLED  FIXED-IN  TYPE  VULNERABILITY        SEVERITY 
rexml    3.2.6      3.3.6     gem   GHSA-vmwr-mc7x-5vc3  Medium    
rexml    3.2.6      3.2.7     gem   GHSA-vg3r-rm7w-2xgh  Medium    
rexml    3.2.6      3.3.3     gem   GHSA-r55c-59qm-vjw6  Medium    
rexml    3.2.6      3.3.3     gem   GHSA-5866-49gr-22v4  Medium    
rexml    3.2.6      3.3.2     gem   GHSA-4xqq-m2hx-25v8  Medium    
rexml    3.2.6      3.3.9     gem   GHSA-2rxp-v6pw-ch6m  Medium    
sinatra  3.2.0                gem   GHSA-hxx2-7vcw-mqr3  Medium


Info: === Trivy Scan Results ===

Info: Updating Trivy database...
Info: Database updated successfully
Info: === Grype Scan Results ===

NAME     INSTALLED  FIXED-IN  TYPE  VULNERABILITY        SEVERITY 
rexml    3.2.6      3.3.6     gem   GHSA-vmwr-mc7x-5vc3  Medium    
rexml    3.2.6      3.2.7     gem   GHSA-vg3r-rm7w-2xgh  Medium    
rexml    3.2.6      3.3.3     gem   GHSA-r55c-59qm-vjw6  Medium    
rexml    3.2.6      3.3.3     gem   GHSA-5866-49gr-22v4  Medium    
rexml    3.2.6      3.3.2     gem   GHSA-4xqq-m2hx-25v8  Medium    
rexml    3.2.6      3.3.9     gem   GHSA-2rxp-v6pw-ch6m  Medium    
sinatra  3.2.0                gem   GHSA-hxx2-7vcw-mqr3  Medium


Info: === Trivy Scan Results ===

Info: Updating Trivy database...
Info: Database updated successfully

devdocs/Gemfile.lock (bundler)
==============================
Total: 6 (UNKNOWN: 0, LOW: 0, MEDIUM: 5, HIGH: 1, CRITICAL: 0)

┌─────────┬────────────────┬──────────┬────────┬───────────────────┬───────────────┬───────────────────────────────────────────────────────────┐
│ Library │ Vulnerability  │ Severity │ Status │ Installed Version │ Fixed Version │                           Title                           │
├─────────┼────────────────┼──────────┼────────┼───────────────────┼───────────────┼───────────────────────────────────────────────────────────┤
│ rexml   │ CVE-2024-49761 │ HIGH     │ fixed  │ 3.2.6             │ >= 3.3.9      │ rexml: REXML ReDoS vulnerability                          │
│         │                │          │        │                   │               │ https://avd.aquasec.com/nvd/cve-2024-49761                │
│         ├────────────────┼──────────┤        │                   ├───────────────┼───────────────────────────────────────────────────────────┤
│         │ CVE-2024-35176 │ MEDIUM   │        │                   │ >= 3.2.7      │ REXML: DoS parsing an XML with many `<`s in an attribute  │
│         │                │          │        │                   │               │ value...                                                  │
│         │                │          │        │                   │               │ https://avd.aquasec.com/nvd/cve-2024-35176                │
│         ├────────────────┤          │        │                   ├───────────────┼───────────────────────────────────────────────────────────┤
│         │ CVE-2024-39908 │          │        │                   │ >= 3.3.2      │ rexml: DoS vulnerability in REXML                         │
│         │                │          │        │                   │               │ https://avd.aquasec.com/nvd/cve-2024-39908                │
│         ├────────────────┤          │        │                   ├───────────────┼───────────────────────────────────────────────────────────┤
│         │ CVE-2024-41123 │          │        │                   │ >= 3.3.3      │ rexml: rubygem-rexml: DoS when parsing an XML having many │
│         │                │          │        │                   │               │ specific characters such...                               │
│         │                │          │        │                   │               │ https://avd.aquasec.com/nvd/cve-2024-41123                │
│         ├────────────────┤          │        │                   │               ├───────────────────────────────────────────────────────────┤
│         │ CVE-2024-41946 │          │        │                   │               │ rexml: DoS vulnerability in REXML                         │
│         │                │          │        │                   │               │ https://avd.aquasec.com/nvd/cve-2024-41946                │
│         ├────────────────┤          │        │                   ├───────────────┼───────────────────────────────────────────────────────────┤
│         │ CVE-2024-43398 │          │        │                   │ >= 3.3.6      │ rexml: DoS vulnerability in REXML                         │
│         │                │          │        │                   │               │ https://avd.aquasec.com/nvd/cve-2024-43398                │
└─────────┴────────────────┴──────────┴────────┴───────────────────┴───────────────┴───────────────────────────────────────────────────────────┘

devdocs/Dockerfile (dockerfile)
===============================
Tests: 28 (SUCCESSES: 25, FAILURES: 3)
Failures: 3 (UNKNOWN: 0, LOW: 1, MEDIUM: 0, HIGH: 2, CRITICAL: 0)

AVD-DS-0002 (HIGH): Specify at least 1 USER command in Dockerfile with non-root user as argument
════════════════════════════════════════════════════════════════════════════════════════════════════════════════════════════════════════════════════════════════════════════════════════════════════════════════════════════════════════════
Running containers with 'root' user can lead to a container escape situation. It is a best practice to run containers as non-root users, which can be done by adding a 'USER' statement to the Dockerfile.

See https://avd.aquasec.com/misconfig/ds002
────────────────────────────────────────────────────────────────────────────────────────────────────────────────────────────────────────────────────────────────────────────────────────────────────────────────────────────────────────────


AVD-DS-0026 (LOW): Add HEALTHCHECK instruction in your Dockerfile
════════════════════════════════════════════════════════════════════════════════════════════════════════════════════════════════════════════════════════════════════════════════════════════════════════════════════════════════════════════
You should add HEALTHCHECK instruction in your docker container images to perform the health check on running containers.

See https://avd.aquasec.com/misconfig/ds026
────────────────────────────────────────────────────────────────────────────────────────────────────────────────────────────────────────────────────────────────────────────────────────────────────────────────────────────────────────────


AVD-DS-0029 (HIGH): '--no-install-recommends' flag is missed: 'apt-get update &&     apt-get -y install git nodejs libcurl4 &&     gem install bundler &&     rm -rf /var/lib/apt/lists/*'
════════════════════════════════════════════════════════════════════════════════════════════════════════════════════════════════════════════════════════════════════════════════════════════════════════════════════════════════════════════
'apt-get' install should use '--no-install-recommends' to minimize image size.

See https://avd.aquasec.com/misconfig/ds029
────────────────────────────────────────────────────────────────────────────────────────────────────────────────────────────────────────────────────────────────────────────────────────────────────────────────────────────────────────────
 devdocs/Dockerfile:7-10
────────────────────────────────────────────────────────────────────────────────────────────────────────────────────────────────────────────────────────────────────────────────────────────────────────────────────────────────────────────
   7 ┌ RUN apt-get update && \
   8 │     apt-get -y install git nodejs libcurl4 && \
   9 │     gem install bundler && \
  10 └     rm -rf /var/lib/apt/lists/*
────────────────────────────────────────────────────────────────────────────────────────────────────────────────────────────────────────────────────────────────────────────────────────────────────────────────────────────────────────────



pat.txt (secrets)
=================
Total: 1 (UNKNOWN: 0, LOW: 0, MEDIUM: 0, HIGH: 0, CRITICAL: 1)

CRITICAL: GitLab (gitlab-pat)
════════════════════════════════════════════════════════════════════════════════════════════════════════════════════════════════════════════════════════════════════════════════════════════════════════════════════════════════════════════
GitLab Personal Access Token
────────────────────────────────────────────────────────────────────────────────────────────────────────────────────────────────────────────────────────────────────────────────────────────────────────────────────────────────────────────
 pat.txt:1
────────────────────────────────────────────────────────────────────────────────────────────────────────────────────────────────────────────────────────────────────────────────────────────────────────────────────────────────────────────
   1 [ **************************
   2   
────────────────────────────────────────────────────────────────────────────────────────────────────────────────────────────────────────────────────────────────────────────────────────────────────────────────────────────────────────────



GITHUB_TOKEN_FILE.txt (secrets)
===============================
Total: 1 (UNKNOWN: 0, LOW: 0, MEDIUM: 0, HIGH: 0, CRITICAL: 1)

CRITICAL: GitHub (github-pat)
════════════════════════════════════════════════════════════════════════════════════════════════════════════════════════════════════════════════════════════════════════════════════════════════════════════════════════════════════════════
GitHub Personal Access Token
────────────────────────────────────────────────────────────────────────────────────────────────────────────────────────────────────────────────────────────────────────────────────────────────────────────────────────────────────────────
 GITHUB_TOKEN_FILE.txt:1
────────────────────────────────────────────────────────────────────────────────────────────────────────────────────────────────────────────────────────────────────────────────────────────────────────────────────────────────────────────
   1 [ ****************************************
────────────────────────────────────────────────────────────────────────────────────────────────────────────────────────────────────────────────────────────────────────────────────────────────────────────────────────────────────────────



GITLAB_TOKEN_FILE.txt (secrets)
===============================
Total: 1 (UNKNOWN: 0, LOW: 0, MEDIUM: 0, HIGH: 0, CRITICAL: 1)

CRITICAL: GitLab (gitlab-pat)
════════════════════════════════════════════════════════════════════════════════════════════════════════════════════════════════════════════════════════════════════════════════════════════════════════════════════════════════════════════
GitLab Personal Access Token
────────────────────────────────────────────────────────────────────────────────────────────────────────────────────────────────────────────────────────────────────────────────────────────────────────────────────────────────────────────
 GITLAB_TOKEN_FILE.txt:1
────────────────────────────────────────────────────────────────────────────────────────────────────────────────────────────────────────────────────────────────────────────────────────────────────────────────────────────────────────────
   1 [ **************************
────────────────────────────────────────────────────────────────────────────────────────────────────────────────────────────────────────────────────────────────────────────────────────────────────────────────────────────────────────────




